…
<!-------------------------- Start your work below ---------------------------->

str(): Explore the *structure* of parking_meters.  
glimpse(): Explore the *variables’ name of the columns* in
building_permits.  
class(): Explore the *overall structure of the data* in
building_permits.  

``` r
building_permits
```

    ## # A tibble: 20,680 × 14
    ##    permit_n…¹ issue_date proje…² type_…³ address proje…⁴ build…⁵ build…⁶ appli…⁷
    ##    <chr>      <date>       <dbl> <chr>   <chr>   <chr>   <chr>   <chr>   <chr>  
    ##  1 BP-2016-0… 2017-02-01  0      Salvag… 4378 W… <NA>    <NA>     <NA>   Raffae…
    ##  2 BU468090   2017-02-01  0      New Bu… 1111 R… <NA>    <NA>     <NA>   MAX KE…
    ##  3 DB-2016-0… 2017-02-01  3.5 e4 Additi… 3732 W… <NA>    <NA>     <NA>   Peter …
    ##  4 DB-2017-0… 2017-02-01  1.5 e4 Additi… 88 W P… <NA>    Mercur… "88 W … Aaron …
    ##  5 DB452250   2017-02-01  1.81e5 New Bu… 492 E … <NA>    082016… "3559 … John H…
    ##  6 BP-2016-0… 2017-02-02  0      Salvag… 3332 W… <NA>    <NA>     <NA>   Shalin…
    ##  7 BP-2016-0… 2017-02-02  1.5 e4 Demoli… 2873 W… <NA>    <NA>     <NA>   Mike C…
    ##  8 BP-2016-0… 2017-02-02  0      Salvag… 3579 E… <NA>    <NA>     <NA>   Ricci …
    ##  9 BP-2016-0… 2017-02-02  6.5 e7 New Bu… 620 CA… <NA>    <NA>     <NA>   David …
    ## 10 BP-2016-0… 2017-02-02  2.5 e4 Additi… 1868 W… <NA>    RenBui… "1868 … Daniel…
    ## # … with 20,670 more rows, 5 more variables: applicant_address <chr>,
    ## #   property_use <chr>, specific_use_category <chr>, year <dbl>, bi_id <dbl>,
    ## #   and abbreviated variable names ¹​permit_number, ²​project_value,
    ## #   ³​type_of_work, ⁴​project_description, ⁵​building_contractor,
    ## #   ⁶​building_contractor_address, ⁷​applicant
…
    ## [1] "spec_tbl_df" "tbl_df"      "tbl"         "data.frame"

dim(): Explore the *number of rows and the number of columns*
steam_games.  
head(): Explore the *first 6 rows* by default.  
tail(): Explore the *last 6 rows* by default.  

``` r
steam_games
```

    ## # A tibble: 40,833 × 21
    ##       id url         types name  desc_…¹ recen…² all_r…³ relea…⁴ devel…⁵ publi…⁶
    ##    <dbl> <chr>       <chr> <chr> <chr>   <chr>   <chr>   <chr>   <chr>   <chr>  
    ##  1     1 https://st… app   DOOM  Now in… Very P… Very P… May 12… id Sof… Bethes…
    ##  2     2 https://st… app   PLAY… PLAYER… Mixed,… Mixed,… Dec 21… PUBG C… PUBG C…
    ##  3     3 https://st… app   BATT… Take c… Mixed,… Mostly… Apr 24… Harebr… Parado…
    ##  4     4 https://st… app   DayZ  The po… Mixed,… Mixed,… Dec 13… Bohemi… Bohemi…
    ##  5     5 https://st… app   EVE … EVE On… Mixed,… Mostly… May 6,… CCP     CCP,CCP
    ##  6     6 https://st… bund… Gran… Grand … NaN     NaN     NaN     Rockst… Rockst…
    ##  7     7 https://st… app   Devi… The ul… Very P… Very P… Mar 7,… CAPCOM… CAPCOM…
    ##  8     8 https://st… app   Huma… Human:… Very P… Very P… Jul 22… No Bra… Curve …
    ##  9     9 https://st… app   They… They A… Very P… Very P… Dec 12… Numant… Numant…
    ## 10    10 https://st… app   Warh… In a w… <NA>    Mixed,… May 31… Eko So… Bigben…
    ## # … with 40,823 more rows, 11 more variables: popular_tags <chr>,
    ## #   game_details <chr>, languages <chr>, achievements <dbl>, genre <chr>,
    ## #   game_description <chr>, mature_content <chr>, minimum_requirements <chr>,
    ## #   recommended_requirements <chr>, original_price <dbl>, discount_price <dbl>,
    ## #   and abbreviated variable names ¹​desc_snippet, ²​recent_reviews,
    ## #   ³​all_reviews, ⁴​release_date, ⁵​developer, ⁶​publisher
…
names(): Explore the *names of variable* in parking_meters.  
summary(): Explore *flow_sample’s each column*, *data type* and a few
other *attributes which are especially useful for numeric attributes*.  
sample_n(): Explore *8 random rows* in parking_meters.  

``` r
parking_meters
```

    ## # A tibble: 10,032 × 22
    ##    meter_head  r_mf_9a…¹ r_mf_…² r_sa_…³ r_sa_…⁴ r_su_…⁵ r_su_…⁶ rate_…⁷ time_…⁸
    ##    <chr>       <chr>     <chr>   <chr>   <chr>   <chr>   <chr>   <chr>   <chr>  
    ##  1 Twin        $2.00     $4.00   $2.00   $4.00   $2.00   $4.00   <NA>    METER …
    ##  2 Pay Station $1.00     $1.00   $1.00   $1.00   $1.00   $1.00   $ .50   METER …
    ##  3 Twin        $1.00     $1.00   $1.00   $1.00   $1.00   $1.00   <NA>    METER …
    ##  4 Single      $1.00     $1.00   $1.00   $1.00   $1.00   $1.00   <NA>    METER …
    ##  5 Twin        $2.00     $1.00   $2.00   $1.00   $2.00   $1.00   <NA>    METER …
    ##  6 Twin        $2.00     $1.00   $2.00   $1.00   $2.00   $1.00   <NA>    METER …
    ##  7 Twin        $2.00     $3.00   $2.00   $3.00   $2.00   $3.00   <NA>    METER …
    ##  8 Single      $2.00     $3.00   $2.00   $3.00   $2.00   $3.00   <NA>    METER …
    ##  9 Twin        $4.00     $1.00   $4.00   $1.00   $4.00   $1.00   <NA>    METER …
    ## 10 Twin        $2.00     $1.00   $2.00   $1.00   $2.00   $1.00   <NA>    METER …
    ## # … with 10,022 more rows, 13 more variables: t_mf_9a_6p <chr>,
    ## #   t_mf_6p_10 <chr>, t_sa_9a_6p <chr>, t_sa_6p_10 <chr>, t_su_9a_6p <chr>,
    ## #   t_su_6p_10 <chr>, time_misc <chr>, credit_card <chr>, pay_phone <chr>,
    ## #   longitude <dbl>, latitude <dbl>, geo_local_area <chr>, meter_id <chr>, and
    ## #   abbreviated variable names ¹​r_mf_9a_6p, ²​r_mf_6p_10, ³​r_sa_9a_6p,
    ## #   ⁴​r_sa_6p_10, ⁵​r_su_9a_6p, ⁶​r_su_6p_10, ⁷​rate_misc, ⁸​time_in_effect
…
sample_frac(): Explore the *N% random rows* in vancouver_trees.  
nrow(): Explore the *number of rows* in vancouver_trees.  
ncol(): Explore the *number of columns* in vancouver_trees.  

``` r
vancouver_trees
```

    ## # A tibble: 146,611 × 20
    ##    tree_id civic_number std_st…¹ genus…² speci…³ culti…⁴ commo…⁵ assig…⁶ root_…⁷
    ##      <dbl>        <dbl> <chr>    <chr>   <chr>   <chr>   <chr>   <chr>   <chr>  
    ##  1  149556          494 W 58TH … ULMUS   AMERIC… BRANDON BRANDO… N       N      
    ##  2  149563          450 W 58TH … ZELKOVA SERRATA <NA>    JAPANE… N       N      
    ##  3  149579         4994 WINDSOR… STYRAX  JAPONI… <NA>    JAPANE… N       N      
    ##  4  149590          858 E 39TH … FRAXIN… AMERIC… AUTUMN… AUTUMN… Y       N      
    ##  5  149604         5032 WINDSOR… ACER    CAMPES… <NA>    HEDGE … N       N      
    ##  6  149616          585 W 61ST … PYRUS   CALLER… CHANTI… CHANTI… N       N      
    ##  7  149617         4909 SHERBRO… ACER    PLATAN… COLUMN… COLUMN… N       N      
    ##  8  149618         4925 SHERBRO… ACER    PLATAN… COLUMN… COLUMN… N       N      
    ##  9  149619         4969 SHERBRO… ACER    PLATAN… COLUMN… COLUMN… N       N      
    ## 10  149625          720 E 39TH … FRAXIN… AMERIC… AUTUMN… AUTUMN… N       N      
    ## # … with 146,601 more rows, 11 more variables: plant_area <chr>,
    ## #   on_street_block <dbl>, on_street <chr>, neighbourhood_name <chr>,
    ## #   street_side_name <chr>, height_range_id <dbl>, diameter <dbl>, curb <chr>,
    ## #   date_planted <date>, longitude <dbl>, latitude <dbl>, and abbreviated
    ## #   variable names ¹​std_street, ²​genus_name, ³​species_name, ⁴​cultivar_name,
    ## #   ⁵​common_name, ⁶​assigned, ⁷​root_barrier

``` r
### Explore the N% random rows in vancouver_trees ###
sample_frac(vancouver_trees, 0.1)
```

    ## # A tibble: 14,661 × 20
    ##    tree_id civic_number std_st…¹ genus…² speci…³ culti…⁴ commo…⁵ assig…⁶ root_…⁷
    ##      <dbl>        <dbl> <chr>    <chr>   <chr>   <chr>   <chr>   <chr>   <chr>  
    ##  1  206307         6017 VICTORI… SORBUS  AUCUPA… CARDIN… CARDIN… N       Y      
    ##  2  120046         3896 W 38TH … PARROT… PERSICA <NA>    PERSIA… N       N      
    ##  3  130391         2702 MANITOB… LIQUID… STYRAC… WORPLE… WORPLE… N       N      
    ##  4  195319         4043 RUPERT … TILIA   CORDATA DEGROOT DEGROO… N       N      
    ##  5  194851          889 W 13TH … FRAXIN… PENNSY… PATMORE PATMOR… N       N      
    ##  6  169882         2908 W 30TH … CHAMAE… LAWSON… <NA>    LAWSON… N       N      
    ##  7  138473         1777 W 7TH AV ACER    FREEMA… SCARLE… FREEMA… N       N      
    ##  8  180747         3990 TRAFALG… MAGNOL… XX      SERENE  MAGNOL… Y       N      
    ##  9  105227         3327 PRICE ST TILIA   EUCHLO… <NA>    CRIMEA… N       N      
    ## 10  104586         4431 PERRY ST TILIA   AMERIC… <NA>    BASSWO… N       N      
    ## # … with 14,651 more rows, 11 more variables: plant_area <chr>,
    ## #   on_street_block <dbl>, on_street <chr>, neighbourhood_name <chr>,
    ## #   street_side_name <chr>, height_range_id <dbl>, diameter <dbl>, curb <chr>,
    ## #   date_planted <date>, longitude <dbl>, latitude <dbl>, and abbreviated
    ## #   variable names ¹​std_street, ²​genus_name, ³​species_name, ⁴​cultivar_name,
    ## #   ⁵​common_name, ⁶​assigned, ⁷​root_barrier
…
***2. Create a new variable based on other variables in your data (only
if it makes sense)***

``` r
steam_games %>%
  mutate(languages_number = str_count(languages, ',') + 1)
```

    ## # A tibble: 40,833 × 22
    ##       id url         types name  desc_…¹ recen…² all_r…³ relea…⁴ devel…⁵ publi…⁶
    ##    <dbl> <chr>       <chr> <chr> <chr>   <chr>   <chr>   <chr>   <chr>   <chr>  
    ##  1     1 https://st… app   DOOM  Now in… Very P… Very P… May 12… id Sof… Bethes…
    ##  2     2 https://st… app   PLAY… PLAYER… Mixed,… Mixed,… Dec 21… PUBG C… PUBG C…
    ##  3     3 https://st… app   BATT… Take c… Mixed,… Mostly… Apr 24… Harebr… Parado…
    ##  4     4 https://st… app   DayZ  The po… Mixed,… Mixed,… Dec 13… Bohemi… Bohemi…
    ##  5     5 https://st… app   EVE … EVE On… Mixed,… Mostly… May 6,… CCP     CCP,CCP
    ##  6     6 https://st… bund… Gran… Grand … NaN     NaN     NaN     Rockst… Rockst…
    ##  7     7 https://st… app   Devi… The ul… Very P… Very P… Mar 7,… CAPCOM… CAPCOM…
    ##  8     8 https://st… app   Huma… Human:… Very P… Very P… Jul 22… No Bra… Curve …
    ##  9     9 https://st… app   They… They A… Very P… Very P… Dec 12… Numant… Numant…
    ## 10    10 https://st… app   Warh… In a w… <NA>    Mixed,… May 31… Eko So… Bigben…
    ## # … with 40,823 more rows, 12 more variables: popular_tags <chr>,
    ## #   game_details <chr>, languages <chr>, achievements <dbl>, genre <chr>,
    ## #   game_description <chr>, mature_content <chr>, minimum_requirements <chr>,
    ## #   recommended_requirements <chr>, original_price <dbl>, discount_price <dbl>,
    ## #   languages_number <dbl>, and abbreviated variable names ¹​desc_snippet,
    ## #   ²​recent_reviews, ³​all_reviews, ⁴​release_date, ⁵​developer, ⁶​publisher
…
***4. Filter observations in your data according to your own criteria.
Think of what you’d like to explore - again, if this was the titanic
dataset, I may want to narrow my search down to passengers born in a
particular year…***

``` r
steam_games %>%
  filter(discount_price - original_price > 0)
```

    ## # A tibble: 9,044 × 21
    ##       id url         types name  desc_…¹ recen…² all_r…³ relea…⁴ devel…⁵ publi…⁶
    ##    <dbl> <chr>       <chr> <chr> <chr>   <chr>   <chr>   <chr>   <chr>   <chr>  
    ##  1     7 https://st… app   Devi… The ul… Very P… Very P… Mar 7,… CAPCOM… CAPCOM…
    ##  2     8 https://st… app   Huma… Human:… Very P… Very P… Jul 22… No Bra… Curve …
    ##  3    12 https://st… app   Dang… A new … Very P… Very P… Sep 25… Spike … Spike …
    ##  4    14 https://st… app   Call… One of… Mixed,… Mixed,… Jul 27… Raven … Activi…
    ##  5    20 https://st… app   Halo… Halo W… Very P… Very P… Apr 20… Ensemb… Xbox G…
    ##  6    21 https://st… app   Call… The bi… Mixed,… Very P… Nov 9,… Treyar… Activi…
    ##  7    22 https://st… app   Phoe… Become… Very P… Very P… Apr 9,… CAPCOM… CAPCOM…
    ##  8    24 https://st… app   Tita… For it… Mixed,… Very P… Aug 31… Iron L… THQ No…
    ##  9    27 https://st… app   Port… Portal… Overwh… Overwh… Oct 10… Valve   Valve,…
    ## 10    28 https://st… app   Visc… In Vis… Very P… Very P… Oct 23… RuneSt… RuneSt…
    ## # … with 9,034 more rows, 11 more variables: popular_tags <chr>,
    ## #   game_details <chr>, languages <chr>, achievements <dbl>, genre <chr>,
    ## #   game_description <chr>, mature_content <chr>, minimum_requirements <chr>,
    ## #   recommended_requirements <chr>, original_price <dbl>, discount_price <dbl>,
    ## #   and abbreviated variable names ¹​desc_snippet, ²​recent_reviews,
    ## #   ³​all_reviews, ⁴​release_date, ⁵​developer, ⁶​publisher
…
``` r
#Summarizing: Task 2

game_time_languages <- steam_games %>%
  mutate(languages_number = str_count(languages, ',') + 1) %>% # create variable languages_number by counting languages variable
  mutate(release_year = format(as.Date(release_date, '%b %d, %Y'),'%Y')) %>% # get the year of the release_date
  drop_na(release_year) %>% # drop NA from release_year
  group_by(release_year, languages_number) %>% # group by release_year and languages_number
  summarize(number1 = n(), .groups = "drop")

game_time_languages
```

    ## # A tibble: 430 × 3
    ##    release_year languages_number number1
    ##    <chr>                   <dbl>   <int>
    ##  1 1981                        1       1
    ##  2 1983                        5       1
    ##  3 1984                        1       1
    ##  4 1984                        5       1
    ##  5 1985                        1       1
    ##  6 1986                        1       1
    ##  7 1987                        1       3
    ##  8 1987                        3       1
    ##  9 1988                        1       5
    ## 10 1989                        1       6
    ## # … with 420 more rows
…
``` r
#Summarizing: Task 3

game_price_classification <- within(steam_games, {   
  original_price_level <- NA # initialize the variable
  original_price_level[original_price < 10] <- "Low" # if original_price < 10, then Low
  original_price_level[original_price >= 10 & original_price < 25] <- "Medium" # if original_price >= 10 & original_price < 25, then Medium
  original_price_level[original_price >= 25] <- "High" # if original_price >= 25, then High
   } )

game_price_classification
```

    ## # A tibble: 40,833 × 22
    ##       id url         types name  desc_…¹ recen…² all_r…³ relea…⁴ devel…⁵ publi…⁶
    ##    <dbl> <chr>       <chr> <chr> <chr>   <chr>   <chr>   <chr>   <chr>   <chr>  
    ##  1     1 https://st… app   DOOM  Now in… Very P… Very P… May 12… id Sof… Bethes…
    ##  2     2 https://st… app   PLAY… PLAYER… Mixed,… Mixed,… Dec 21… PUBG C… PUBG C…
    ##  3     3 https://st… app   BATT… Take c… Mixed,… Mostly… Apr 24… Harebr… Parado…
    ##  4     4 https://st… app   DayZ  The po… Mixed,… Mixed,… Dec 13… Bohemi… Bohemi…
    ##  5     5 https://st… app   EVE … EVE On… Mixed,… Mostly… May 6,… CCP     CCP,CCP
    ##  6     6 https://st… bund… Gran… Grand … NaN     NaN     NaN     Rockst… Rockst…
    ##  7     7 https://st… app   Devi… The ul… Very P… Very P… Mar 7,… CAPCOM… CAPCOM…
    ##  8     8 https://st… app   Huma… Human:… Very P… Very P… Jul 22… No Bra… Curve …
    ##  9     9 https://st… app   They… They A… Very P… Very P… Dec 12… Numant… Numant…
    ## 10    10 https://st… app   Warh… In a w… <NA>    Mixed,… May 31… Eko So… Bigben…
    ## # … with 40,823 more rows, 12 more variables: popular_tags <chr>,
    ## #   game_details <chr>, languages <chr>, achievements <dbl>, genre <chr>,
    ## #   game_description <chr>, mature_content <chr>, minimum_requirements <chr>,
    ## #   recommended_requirements <chr>, original_price <dbl>, discount_price <dbl>,
    ## #   original_price_level <chr>, and abbreviated variable names ¹​desc_snippet,
    ## #   ²​recent_reviews, ³​all_reviews, ⁴​release_date, ⁵​developer, ⁶​publisher
…
``` r
#Summarizing: Task 2

game_mature_content <- within(steam_games, {   
  whether_mature_content <- NA # initialize the variable
  whether_mature_content[!is.na(mature_content)] <- "Yes" # if mature_content != NA, then Yes
  whether_mature_content[is.na(mature_content) | mature_content == "NaN"] <- "No" # if mature_content == NA or NaN, then No
   } )

game_mature_content
```

    ## # A tibble: 40,833 × 22
    ##       id url         types name  desc_…¹ recen…² all_r…³ relea…⁴ devel…⁵ publi…⁶
    ##    <dbl> <chr>       <chr> <chr> <chr>   <chr>   <chr>   <chr>   <chr>   <chr>  
    ##  1     1 https://st… app   DOOM  Now in… Very P… Very P… May 12… id Sof… Bethes…
    ##  2     2 https://st… app   PLAY… PLAYER… Mixed,… Mixed,… Dec 21… PUBG C… PUBG C…
    ##  3     3 https://st… app   BATT… Take c… Mixed,… Mostly… Apr 24… Harebr… Parado…
    ##  4     4 https://st… app   DayZ  The po… Mixed,… Mixed,… Dec 13… Bohemi… Bohemi…
    ##  5     5 https://st… app   EVE … EVE On… Mixed,… Mostly… May 6,… CCP     CCP,CCP
    ##  6     6 https://st… bund… Gran… Grand … NaN     NaN     NaN     Rockst… Rockst…
    ##  7     7 https://st… app   Devi… The ul… Very P… Very P… Mar 7,… CAPCOM… CAPCOM…
    ##  8     8 https://st… app   Huma… Human:… Very P… Very P… Jul 22… No Bra… Curve …
    ##  9     9 https://st… app   They… They A… Very P… Very P… Dec 12… Numant… Numant…
    ## 10    10 https://st… app   Warh… In a w… <NA>    Mixed,… May 31… Eko So… Bigben…
    ## # … with 40,823 more rows, 12 more variables: popular_tags <chr>,
    ## #   game_details <chr>, languages <chr>, achievements <dbl>, genre <chr>,
    ## #   game_description <chr>, mature_content <chr>, minimum_requirements <chr>,
    ## #   recommended_requirements <chr>, original_price <dbl>, discount_price <dbl>,
    ## #   whether_mature_content <chr>, and abbreviated variable names ¹​desc_snippet,
    ## #   ²​recent_reviews, ³​all_reviews, ⁴​release_date, ⁵​developer, ⁶​publisher

``` r
game_count_mature <- game_mature_content %>%
  mutate(release_date_year = format(as.Date(release_date, '%b %d, %Y'),'%Y')) %>% # get year variable
  drop_na(release_date_year) %>% # drop NA from year variable
  group_by(release_date_year, whether_mature_content) %>% # group by release_date_year and whether_mature_content
  summarize(n = n(), .groups = "drop")

game_count_mature
```

    ## # A tibble: 65 × 3
    ##    release_date_year whether_mature_content     n
    ##    <chr>             <chr>                  <int>
    ##  1 1981              No                         1
    ##  2 1983              No                         1
    ##  3 1984              No                         2
    ##  4 1985              No                         1
    ##  5 1986              No                         1
    ##  6 1987              No                         4
    ##  7 1988              No                         5
    ##  8 1989              No                         6
    ##  9 1990              No                         9
    ## 10 1991              No                         8
    ## # … with 55 more rows
…
